<?xml version="1.0" encoding="UTF-8"?>
<session version="1.0">
<refactoring comment="Rename local variable &apos;profit&apos; in &apos;com.da.coding.greedy.JobSeqWithDeadlines.maxProfit(...)&apos; to &apos;profits&apos;&#x0A;- Original project: &apos;crackingcodinginterviews&apos;&#x0A;- Original element: &apos;com.da.coding.greedy.JobSeqWithDeadlines.maxProfit(Integer[], Integer[]).profit&apos;&#x0A;- Renamed element: &apos;profit&apos;&#x0A;- Update references to refactored element" description="Rename local variable &apos;profit&apos;" id="org.eclipse.jdt.ui.rename.local.variable" input="/src\/main\/java&lt;com.da.coding.greedy{JobSeqWithDeadlines.java[JobSeqWithDeadlines~maxProfit~\[QInteger;~\[QInteger;@profit!523!538!533!538!\[QInteger;!0!true" name="profits" references="true" stamp="1544357572102" version="1.0"/>
</session>