<?xml version="1.0" encoding="UTF-8"?>
<session version="1.0">
<refactoring comment="Delete resource &apos;op-multithreading&apos;" deleteContents="true" description="Delete resource &apos;op-multithreading&apos;" element1="/op-multithreading" flags="7" id="org.eclipse.ltk.core.refactoring.delete.resources" resources="1" stamp="1549937347373"/>
</session>