/Users/dagraw1/Documents/Personal/personal-workspace/kafka-demo/src/main/java/com/da/coding/kafka/sync/ProducerThread.java
/Users/dagraw1/Documents/Personal/personal-workspace/kafka-demo/src/main/java/com/da/coding/kafka/MyConsumer.java
/Users/dagraw1/Documents/Personal/personal-workspace/kafka-demo/src/main/java/com/da/coding/kafka/MyProducer.java
/Users/dagraw1/Documents/Personal/personal-workspace/kafka-demo/src/main/java/com/da/coding/kafka/sync/ProducerCallback.java
/Users/dagraw1/Documents/Personal/personal-workspace/kafka-demo/src/main/java/com/da/coding/kafka/sync/KafkaProperties.java
/Users/dagraw1/Documents/Personal/personal-workspace/kafka-demo/src/main/java/com/da/coding/kafka/sync/ConsumerThread.java
/Users/dagraw1/Documents/Personal/personal-workspace/kafka-demo/src/main/java/com/da/coding/kafka/sync/ProducerConsumerSyncTest.java
