<?xml version="1.0" encoding="UTF-8"?>
<session version="1.0">
<refactoring comment="Rename local variable &apos;count&apos; in &apos;com.da.coding.dynamicprog.Parenthesis.permute(...)&apos; to &apos;index&apos;&#x0A;- Original project: &apos;crackingcodinginterviews&apos;&#x0A;- Original element: &apos;com.da.coding.dynamicprog.Parenthesis.permute(int, int, List&lt;String&gt;, char[], int).count&apos;&#x0A;- Renamed element: &apos;count&apos;&#x0A;- Update references to refactored element" description="Rename local variable &apos;count&apos;" id="org.eclipse.jdt.ui.rename.local.variable" input="/src\/main\/java&lt;com.da.coding.dynamicprog{Parenthesis.java[Parenthesis~permute~I~I~QList\&lt;QString;&gt;;~\[C~I@count!751!759!755!759!I!0!true" name="index" references="true" stamp="1548988396152" version="1.0"/>
</session>